module gitlab.com/otus-go-hw/queues

go 1.14

require (
	github.com/cenkalti/backoff/v3 v3.2.2
	github.com/heetch/confita v0.9.0
	github.com/jackc/pgx v3.6.2+incompatible
	github.com/jmoiron/sqlx v1.2.0
	github.com/spf13/cobra v1.0.0
	github.com/spf13/pflag v1.0.3
	github.com/streadway/amqp v0.0.0-20200108173154-1c71cc93ed71
)
